{
  "intents": [
    {
      "intent": "GetDieIntent",
      "slots": [
        {
          "name": "Sides",
          "type": "AMAZON.NUMBER"
        }
      ]
    },
    {
      "intent": "GetVersionIntent"
    },
    {
      "intent": "AMAZON.WelcomeIntent"
    },
    {
      "intent": "AMAZON.HelpIntent"
    },
    {
      "intent": "AMAZON.StopIntent"
    },
    {
      "intent": "AMAZON.CancelIntent"
    }
  ]
 }
